{
  "@context": {
    "gax": "https://de.wikipedia.org/wiki/GAIA-X#",
    "isps": "http://example.org/business-isps#",
    "node": "http://example.org/nodes/self-descriptions#",
    "om": "http://www.ontology-of-units-of-measure.org/resource/om-2/",
    "owl": "http://www.w3.org/2002/07/owl#",
    "rdf": "http://www.w3.org/1999/02/22-rdf-syntax-ns#",
    "rdfs": "http://www.w3.org/2000/01/rdf-schema#",
    "gsd": "https://de.wikipedia.org/wiki/GAIA-X#",
    "xsd": "http://www.w3.org/2001/XMLSchema#"
  },
  "@id": "node:business_ISP_Link_without_own_AS",
  "@type": "gax:Node",
  "gax:businessISP": {
      "@type": "gax:NodeBusinessISP",
      "gax:bispASnumber": "AS42",
      "gax:bispName" : "Business ISP A",

      "@reverse": {
        "om:hasPhenomenon": {
        "@type": "gax:UpstreamBandwith",
        "om:hasValue": {
          "@type": "om:Measure",
          "om:hasUnit": "gax:gigaBitPerSecond-Time" ,
          "om:hasNumericalValue": 1
          }
        }
      },

      "@reverse": {
        "om:hasPhenomenon": {
        "@type": "gax:DownstreamBandwith",
        "om:hasValue": {
          "@type": "om:Measure",
          "om:hasUnit": "gax:gigaBitPerSecond-Time" ,
          "om:hasNumericalValue": 10
        }
      }
    }
  },

  "gax:linkSLA": {
    "@type": "gax:LinkSLA",

    "@reverse": {
      "om:hasPhenomenon": {
        "@type": "gax:PacketLoss",
        "om:hasValue": {
          "@type": "om:Measure",
          "om:hasUnit": "om:millisecond-Time" ,
          "om:hasNumericalValue": 0.05
        }
      }
    },

    "@reverse": {
      "om:hasPhenomenon": {
        "@type": "gax:rtt",
        "om:hasValue": {
          "@type": "om:Measure",
          "om:hasUnit": "om:percent" ,
          "om:hasNumericalValue": 0.5
        }
    }
  }
},

"gax:peeringPoint": {
  "@type": "gax:PeeringPoint",
  "gax:hasPeeringPolicy": "gax:OPEN",

  "@reverse": {
    "om:hasPhenomenon": {
    "@type": "gax:Bandwith",
    "om:hasValue": {
      "@type": "om:Measure",
      "om:hasUnit": "gax:gigaBitPerSecond-Time" ,
      "om:hasNumericalValue": 10
    }
  }
}
}




}
